/home/dragon/IdeaProjects/test_jenkins/Server/src/main/java/org/acme/PaymentRessource.java
/home/dragon/IdeaProjects/test_jenkins/Server/src/main/java/org/acme/Payment.java
/home/dragon/IdeaProjects/test_jenkins/Server/src/main/java/org/acme/PaymentService.java
